<svg id="app" xmlns="http://www.w3.org/2000/svg" xmlns:xlink="http://www.w3.org/1999/xlink" width="115" height="33.824" viewBox="0 0 115 33.824">
  <defs>
    <linearGradient id="linear-gradient" x1="0.5" y1="1.003" x2="0.5" y2="-2.604" gradientUnits="objectBoundingBox">
      <stop offset="0" stop-color="#1a1a1a" stop-opacity="0.102"/>
      <stop offset="0.123" stop-color="#212121" stop-opacity="0.153"/>
      <stop offset="0.308" stop-color="#353535" stop-opacity="0.227"/>
      <stop offset="0.532" stop-color="#575757" stop-opacity="0.318"/>
      <stop offset="0.783" stop-color="#858585" stop-opacity="0.42"/>
      <stop offset="1" stop-color="#b3b3b3" stop-opacity="0.51"/>
    </linearGradient>
  </defs>
  <g id="Group-7" transform="translate(0 0)">
    <g id="download-on-the-app-store-apple-brand-logo-3a5079b00b08d88f-copy" transform="translate(0)">
      <path id="Shape" d="M114.19,29.785a3.229,3.229,0,0,1-.957,2.292,3.279,3.279,0,0,1-2.311.948H3.983A3.256,3.256,0,0,1,.711,29.785V3.951A3.261,3.261,0,0,1,3.983.708H110.921a3.278,3.278,0,0,1,2.311.95,3.225,3.225,0,0,1,.957,2.294Z" transform="translate(0.047 0.045)" fill="#fff"/>
      <path id="Shape-2" data-name="Shape" d="M110.97,33.824H4.031A4.016,4.016,0,0,1,0,29.83V4A4.019,4.019,0,0,1,4.031,0H110.969A4.019,4.019,0,0,1,115,4V29.83A4.015,4.015,0,0,1,110.97,33.824Z" fill="#a6a6a6"/>
      <path id="Shape-3" data-name="Shape" d="M114.19,29.785a3.229,3.229,0,0,1-.957,2.292,3.279,3.279,0,0,1-2.311.948H3.983A3.256,3.256,0,0,1,.711,29.785V3.951A3.261,3.261,0,0,1,3.983.708H110.921a3.278,3.278,0,0,1,2.311.95,3.225,3.225,0,0,1,.957,2.294Z" transform="translate(0.047 0.045)"/>
      <path id="Shape-4" data-name="Shape" d="M25,16.419a4.9,4.9,0,0,1,2.353-4.114,5.074,5.074,0,0,0-3.985-2.138c-1.676-.175-3.3,1-4.157,1-.871,0-2.186-.979-3.6-.95a5.311,5.311,0,0,0-4.466,2.7c-1.931,3.318-.491,8.194,1.359,10.876.926,1.314,2.007,2.78,3.423,2.729,1.385-.056,1.9-.875,3.574-.875,1.656,0,2.142.875,3.586.842,1.486-.023,2.422-1.319,3.315-2.645a10.806,10.806,0,0,0,1.516-3.064A4.749,4.749,0,0,1,25,16.419ZM22.269,8.4a4.8,4.8,0,0,0,1.113-3.459,4.966,4.966,0,0,0-3.2,1.644,4.571,4.571,0,0,0-1.142,3.331A4.1,4.1,0,0,0,22.269,8.4Z" transform="translate(0.683 0.314)" fill="#fff"/>
      <path id="Shape-5" data-name="Shape" d="M107.608,0H50.328L72.764,33.824h34.844a4.019,4.019,0,0,0,4.03-4V4A4.019,4.019,0,0,0,107.608,0Z" transform="translate(3.361)" fill="url(#linear-gradient)"/>
      <g id="Group" transform="translate(36.164 15.224)">
        <path id="Shape-6" data-name="Shape" d="M9.919,12.217H7.984L6.923,8.911H3.238l-1.01,3.306H.344L4,.961H6.251ZM6.6,7.524,5.645,4.585q-.152-.45-.572-2.12H5.039q-.169.718-.539,2.12L3.558,7.524Zm12.689.535a4.575,4.575,0,0,1-1.134,3.273A3.336,3.336,0,0,1,15.638,12.4,2.53,2.53,0,0,1,13.3,11.25v4.259H11.486V6.768q0-1.3-.067-2.668h1.6l.1,1.286h.034a3.034,3.034,0,0,1,2.76-1.454,3.043,3.043,0,0,1,2.415,1.135A4.465,4.465,0,0,1,19.293,8.059Zm-1.851.066A3.327,3.327,0,0,0,16.9,6.17a1.866,1.866,0,0,0-1.582-.8,1.9,1.9,0,0,0-1.22.442,2.05,2.05,0,0,0-.715,1.161,2.338,2.338,0,0,0-.084.549V8.876a2.162,2.162,0,0,0,.547,1.5,1.823,1.823,0,0,0,1.422.61,1.867,1.867,0,0,0,1.6-.785A3.435,3.435,0,0,0,17.442,8.125ZM28.7,8.059a4.575,4.575,0,0,1-1.134,3.273A3.338,3.338,0,0,1,25.045,12.4a2.529,2.529,0,0,1-2.335-1.151v4.259H20.892V6.768q0-1.3-.067-2.668h1.6l.1,1.286h.034a3.248,3.248,0,0,1,5.175-.319A4.47,4.47,0,0,1,28.7,8.059Zm-1.852.066a3.327,3.327,0,0,0-.54-1.955,1.863,1.863,0,0,0-1.58-.8,1.906,1.906,0,0,0-1.221.442,2.048,2.048,0,0,0-.714,1.161,2.389,2.389,0,0,0-.085.549V8.876a2.169,2.169,0,0,0,.546,1.5,1.827,1.827,0,0,0,1.423.61,1.865,1.865,0,0,0,1.6-.785A3.435,3.435,0,0,0,26.848,8.125Zm12.37.935A3,3,0,0,1,38.209,11.4a4.491,4.491,0,0,1-3.09.985,5.425,5.425,0,0,1-2.937-.7l.42-1.5a5.085,5.085,0,0,0,2.625.7,2.49,2.49,0,0,0,1.6-.459A1.5,1.5,0,0,0,37.4,9.2a1.566,1.566,0,0,0-.472-1.153,4.386,4.386,0,0,0-1.565-.868q-2.979-1.1-2.98-3.224A2.838,2.838,0,0,1,33.435,1.68,4.18,4.18,0,0,1,36.22.794a5.54,5.54,0,0,1,2.575.535L38.339,2.8a4.53,4.53,0,0,0-2.179-.518,2.227,2.227,0,0,0-1.5.468,1.334,1.334,0,0,0-.456,1.02,1.374,1.374,0,0,0,.523,1.1,5.9,5.9,0,0,0,1.648.868,5.592,5.592,0,0,1,2.154,1.369A2.839,2.839,0,0,1,39.218,9.06Zm6.023-3.606h-2V9.395q0,1.5,1.06,1.5a3.215,3.215,0,0,0,.807-.084l.05,1.369a4.145,4.145,0,0,1-1.413.2,2.187,2.187,0,0,1-1.683-.652,3.181,3.181,0,0,1-.606-2.188V5.451H40.26V4.1h1.193V2.611l1.785-.535V4.1h2ZM54.26,8.092a4.432,4.432,0,0,1-1.077,3.073,3.854,3.854,0,0,1-3,1.236,3.674,3.674,0,0,1-2.87-1.184,4.3,4.3,0,0,1-1.069-2.989,4.4,4.4,0,0,1,1.1-3.089,3.835,3.835,0,0,1,2.971-1.2,3.752,3.752,0,0,1,2.894,1.186A4.242,4.242,0,0,1,54.26,8.092Zm-1.884.041a3.613,3.613,0,0,0-.487-1.915,1.8,1.8,0,0,0-1.633-.967,1.827,1.827,0,0,0-1.666.967A3.672,3.672,0,0,0,48.1,8.167a3.6,3.6,0,0,0,.488,1.916,1.87,1.87,0,0,0,3.284-.016A3.627,3.627,0,0,0,52.377,8.134Zm7.793-2.447a3.185,3.185,0,0,0-.573-.05,1.719,1.719,0,0,0-1.481.719,2.693,2.693,0,0,0-.453,1.6v4.259H55.845V6.657q0-1.278-.053-2.555h1.583l.066,1.553h.05A2.785,2.785,0,0,1,58.4,4.368a2.208,2.208,0,0,1,1.313-.435,2.939,2.939,0,0,1,.454.033ZM68.3,7.775a4.189,4.189,0,0,1-.066.818H62.778a2.346,2.346,0,0,0,.791,1.839A2.719,2.719,0,0,0,65.352,11a6.069,6.069,0,0,0,2.206-.383l.285,1.251a6.866,6.866,0,0,1-2.742.5,3.992,3.992,0,0,1-2.988-1.11,4.085,4.085,0,0,1-1.085-2.981,4.627,4.627,0,0,1,1.011-3.055,3.493,3.493,0,0,1,2.86-1.3,3.056,3.056,0,0,1,2.677,1.3A4.356,4.356,0,0,1,68.3,7.775Zm-1.733-.468a2.428,2.428,0,0,0-.353-1.386,1.59,1.59,0,0,0-1.447-.753,1.727,1.727,0,0,0-1.446.735,2.681,2.681,0,0,0-.538,1.4Z" transform="translate(-0.344 -0.794)" fill="#fff"/>
      </g>
      <g id="Group-2" data-name="Group" transform="translate(37.227 5.543)">
        <path id="Shape-7" data-name="Shape" d="M1.848,6.308A11.693,11.693,0,0,1,.542,6.242V.8A9.967,9.967,0,0,1,2.08.685C4.164.685,5.124,1.7,5.124,3.361,5.124,5.274,3.99,6.308,1.848,6.308Zm.305-4.925a3.673,3.673,0,0,0-.719.058V5.577a4.753,4.753,0,0,0,.6.025A1.967,1.967,0,0,0,4.18,3.386,1.812,1.812,0,0,0,2.153,1.383ZM8.115,6.35A1.9,1.9,0,0,1,6.179,4.3a1.949,1.949,0,0,1,2-2.109,1.89,1.89,0,0,1,1.936,2.044A1.961,1.961,0,0,1,8.115,6.35Zm.034-3.514c-.645,0-1.059.6-1.059,1.436,0,.821.422,1.42,1.05,1.42s1.05-.64,1.05-1.437C9.19,3.443,8.777,2.836,8.149,2.836Zm8.665-.566L15.557,6.259h-.819l-.521-1.732a13.028,13.028,0,0,1-.323-1.288h-.017a8.583,8.583,0,0,1-.322,1.288L13,6.259h-.828L10.99,2.27h.918l.455,1.9q.161.678.273,1.281h.017a13.058,13.058,0,0,1,.331-1.272l.571-1.9h.728l.546,1.863c.132.452.239.895.323,1.314h.024a11.389,11.389,0,0,1,.273-1.314l.488-1.863Zm4.628,3.989h-.893V3.969c0-.705-.273-1.059-.811-1.059a.923.923,0,0,0-.893.977V6.259h-.893V3.41c0-.353-.009-.731-.033-1.141H18.7l.042.616h.025a1.446,1.446,0,0,1,1.274-.7c.844,0,1.4.64,1.4,1.682Zm2.463,0h-.894V.44h.894Zm3.257.091A1.905,1.905,0,0,1,25.226,4.3a1.949,1.949,0,0,1,2-2.109,1.889,1.889,0,0,1,1.936,2.044A1.96,1.96,0,0,1,27.162,6.35ZM27.2,2.836c-.645,0-1.059.6-1.059,1.436,0,.821.423,1.42,1.049,1.42s1.05-.64,1.05-1.437C28.237,3.443,27.824,2.836,27.2,2.836Zm5.49,3.423L32.62,5.8H32.6a1.376,1.376,0,0,1-1.175.55A1.165,1.165,0,0,1,30.19,5.176c0-.985.86-1.494,2.349-1.494V3.608c0-.525-.28-.788-.834-.788a1.891,1.891,0,0,0-1.05.3l-.182-.583a2.584,2.584,0,0,1,1.38-.345c1.05,0,1.58.55,1.58,1.65V5.307a5.975,5.975,0,0,0,.058.952Zm-.123-1.987c-.992,0-1.49.239-1.49.8a.567.567,0,0,0,.613.623.853.853,0,0,0,.877-.812ZM37.77,6.259l-.042-.64H37.7a1.349,1.349,0,0,1-1.29.731,1.822,1.822,0,0,1-1.687-2.036,1.9,1.9,0,0,1,1.76-2.126,1.21,1.21,0,0,1,1.134.542h.018V.44h.894V5.184c0,.386.009.747.033,1.075Zm-.132-2.347A.968.968,0,0,0,36.7,2.877c-.662,0-1.067.583-1.067,1.4,0,.8.42,1.355,1.049,1.355a1,1,0,0,0,.959-1.059ZM44.2,6.35A1.9,1.9,0,0,1,42.266,4.3a1.949,1.949,0,0,1,2-2.109A1.89,1.89,0,0,1,46.2,4.232,1.96,1.96,0,0,1,44.2,6.35Zm.033-3.514c-.644,0-1.058.6-1.058,1.436,0,.821.422,1.42,1.049,1.42s1.05-.64,1.05-1.437C45.277,3.443,44.864,2.836,44.234,2.836Zm6.773,3.423h-.894V3.969c0-.705-.273-1.059-.811-1.059a.923.923,0,0,0-.892.977V6.259h-.894V3.41c0-.353-.009-.731-.033-1.141h.786l.042.616h.025a1.446,1.446,0,0,1,1.273-.7c.844,0,1.4.64,1.4,1.682Zm6.01-3.324h-.983V4.872c0,.493.172.739.52.739a1.773,1.773,0,0,0,.4-.041l.025.673a1.992,1.992,0,0,1-.693.1c-.7,0-1.125-.386-1.125-1.4V2.935H54.57V2.27h.586V1.539l.877-.263v.993h.983Zm4.729,3.324h-.892V3.985c0-.714-.272-1.075-.811-1.075a.873.873,0,0,0-.894.944v2.4h-.892V.44h.892v2.4h.018a1.358,1.358,0,0,1,1.209-.649c.851,0,1.371.656,1.371,1.7Zm4.845-1.781H63.909a1.15,1.15,0,0,0,1.267,1.182,3.039,3.039,0,0,0,1.083-.189l.139.616a3.377,3.377,0,0,1-1.348.246,1.859,1.859,0,0,1-2-2.011,1.954,1.954,0,0,1,1.9-2.142,1.68,1.68,0,0,1,1.671,1.9A1.7,1.7,0,0,1,66.589,4.478Zm-.819-.632c0-.616-.313-1.051-.884-1.051a1.055,1.055,0,0,0-.977,1.051Z" transform="translate(-0.542 -0.44)" fill="#fff"/>
      </g>
    </g>
  </g>
</svg>
