<svg xmlns="http://www.w3.org/2000/svg" xmlns:xlink="http://www.w3.org/1999/xlink" width="23.999" height="23" viewBox="0 0 23.999 23">
  <defs>
    <clipPath id="clip-path">
      <rect id="Rectangle_10" data-name="Rectangle 10" width="23.999" height="23" transform="translate(0 0)" fill="#801c2b"/>
    </clipPath>
  </defs>
  <g id="cart" transform="translate(-114 -212)">
    <g id="Group_2341" data-name="Group 2341" transform="translate(114 212)" clip-path="url(#clip-path)">
      <path id="Path_8010" data-name="Path 8010" d="M234.562,536.156a1.406,1.406,0,1,1-1.406-1.406,1.406,1.406,0,0,1,1.406,1.406Zm0,0" transform="translate(-224.391 -514.578)" fill="#801c2b"/>
      <path id="Path_8011" data-name="Path 8011" d="M137.3,263.344H120.24l-.768-4.351a2.106,2.106,0,0,0-2.077-1.743H114.7a.7.7,0,0,0,0,1.406h2.691a.7.7,0,0,1,.692.581l1.994,11.3a2.109,2.109,0,0,0,.81,4.057h12.656a.7.7,0,0,0,0-1.406H120.89a.7.7,0,1,1,0-1.406h13.924a.7.7,0,0,0,.663-.469l2.482-7.031a.7.7,0,0,0-.663-.937Zm-4.857,6.25h-9.161a.7.7,0,0,1,0-1.406h9.161a.7.7,0,0,1,0,1.406Zm.937-2.656H122.809a.7.7,0,0,1,0-1.406h10.567a.7.7,0,0,1,0,1.406Zm0,0" transform="translate(-114 -254.422)" fill="#801c2b"/>
      <path id="Path_8012" data-name="Path 8012" d="M234.562,536.156a1.406,1.406,0,1,1-1.406-1.406,1.406,1.406,0,0,1,1.406,1.406Zm0,0" transform="translate(-215.641 -514.578)" fill="#801c2b"/>
    </g>
  </g>
</svg>
